{
    "id": "/sami/infra/elasticsearch-elk",
    "cmd": "elasticsearch -Des.node.name=$HOST -Des.network.publish_host=$HOST -Des.transport.publish_port=9350 -Des.http.publish_host=$HOST -Des.http.publish_port=9250 -Des.index.mapper.dynamic=true -Des.cluster.name=logstash -Des.bootstrap.mlockall=true -Des.discovery.zen.ping.multicast.enabled=false -Des.discovery.zen.ping.unicast.hosts=$HOST -Des.index.refresh_interval=10s -Des.index.refresh_interval=1s", 
    "container": {
        "type": "DOCKER",
        "docker": {
            "image": "elasticsearch:1.5.2",
            "network": "BRIDGE",
            "portMappings": [
                {
                    "containerPort": 9200,
                    "hostPort": 0,
                    "servicePort": 9250,
                    "protocol": "tcp"
                },
                {
                    "containerPort": 9300,
                    "hostPort": 0,
                    "servicePort": 9350,
                    "protocol": "tcp"
                }
            ],
            "privileged": false
        },
        "volumes": [
            {
                "containerPath": "/usr/share/elasticsearch/data",
                "hostPath": "/ephemeral1",
                "mode": "RW"
            }
        ]
    },
    "cpus": 6.0,
    "mem": 8196.0,
    "constraints": [
        ["hostname", "LIKE", "infra.*"],
        ["hostname", "UNIQUE"]
    ],
    "env": {
        "SERVICE_9200_NAME": "elasticsearch-elk",
        "SERVICE_9300_NAME": "elasticsearch-elk-9300",
        "SERVICE_TAGS": "1.5.2",
        "SERVICE_VERSION": "1.5.2",
        "SERVICE_REGION": "us-east-1",
        "TZ": "America/Los_Angeles"
    },
    "healthChecks": [
        {
            "protocol": "HTTP",
            "path": "/_cluster/health",
            "gracePeriodSeconds": 30,
            "intervalSeconds": 10,
            "portIndex": 0,
            "timeoutSeconds": 10,
            "maxConsecutiveFailures": 3
        }
    ],
    "instances": 0,
    "ports": [ 0, 0 ],
    "backoffSeconds": 1,
    "backoffFactor": 1.15,
    "maxLaunchDelaySeconds": 360,
    "upgradeStrategy": {
        "minimumHealthCapacity": 0,
        "maximumOverCapacity": 0
    }
}
