{
    "id": "/sami/infra/graylog-mongo",
    "args": ["mongod", "--logpath", "/data/db/mongod.log", "--smallfiles", "--logappend"],
    "container": {
        "type": "DOCKER",
        "docker": {
            "image": "mongo:2.4.13",
            "network": "BRIDGE",
            "portMappings": [
                {
                    "containerPort": 27017,
                    "hostPort": 0,
                    "servicePort": 27027,
                    "protocol": "tcp"
                }
            ],
            "privileged": false
        },
        "volumes": [
            {
                "containerPath": "/data/db",
                "hostPath": "/mongodb",
                "mode": "RW"
            }
        ]
    },
    "cpus": 1.0,
    "mem": 2049.0,
    "env": {
        "SERVICE_27017_NAME": "graylog-mongo",
        "SERVICE_REGION": "us-east-1",
        "TZ": "America/Los_Angeles"
    },

    "constraints": [
        ["hostname", "LIKE", "infra.*"]
    ],

    "healthChecks": [
        {
            "protocol": "TCP",
            "gracePeriodSeconds": 30,
            "intervalSeconds": 10,
            "portIndex": 0,
            "timeoutSeconds": 10,
            "maxConsecutiveFailures": 3
        }
    ],
    "instances": 1,
    "ports": [ 0 ],
    "backoffSeconds": 1,
    "backoffFactor": 1.15,
    "maxLaunchDelaySeconds": 360,
    "upgradeStrategy": {
        "minimumHealthCapacity": 0,
        "maximumOverCapacity": 0
    }

}
