{
  "id": "/sami/infra/hdfs-namenode-exporter-qa",
  "container": {
    "type": "DOCKER",
    "docker": {
      "image": "registry-prod.samihub.org/hadoop_exporter",
      "network": "BRIDGE",
      "portMappings": [{
        "containerPort": 9070,
        "hostPort": 0,
        "servicePort": 9071,
        "protocol": "tcp"
      }],
      "privileged": true
    }
  },

  "constraints": [
    ["hostname", "LIKE", "hdfs0.*"]
  ],

  "env": {
    "SERVICE_9071_NAME": "hdfs-namenode-exporter-qa"
  },

  "instances": 1,
  "cpus": 0.5,
  "mem": 512.0,
  "backoffSeconds": 1,
  "backoffFactor": 1.15,
  "maxLaunchDelaySeconds": 300,
  "upgradeStrategy": {
    "minimumHealthCapacity": 0,
    "maximumOverCapacity": 0
  },

  "args": [
    "-namenode.jmx.url=http://10.20.101.231:50070/jmx"
  ]

}
