{
  "id": "/sami/infra/jenkins-exporter",
  "container": {
    "type": "DOCKER",
    "docker": {
      "image": "lovoo/jenkins_exporter:latest",
      "network": "BRIDGE",
      "portMappings": [{
        "containerPort": 9118,
        "hostPort": 0,
        "servicePort": 9118,
        "protocol": "tcp"
      }],
      "privileged": false
    }
  },
  "constraints": [
    ["hostname", "LIKE", "infra01.*"]
  ],
  "env": {
    "SERVICE_9118_NAME": "jenkins-exporter"
  },
  "instances": 1,
  "cpus": 0.25,
  "mem": 512.0,
  "backoffSeconds": 1,
  "backoffFactor": 1.15,
  "maxLaunchDelaySeconds": 300,
  "upgradeStrategy": {
    "minimumHealthCapacity": 0,
    "maximumOverCapacity": 0
  },
  "args": [
  "-j",
  "http://promreadonly:r5mwUm6S@infra01-nops-us-east-1a.ec2.ssic.internal:8083",
  "-p",
  "9118"
  ]
}
