{
  "id": "/sami/infra/jenkins",
  "container": {
    "type": "DOCKER",
    "docker": {
      "image": "registry.samsungsami.io/jenkins:1.609.1.v3",
      "network": "HOST",
	    "parameters": [
	      {
		   "key": "publish",
		   "value": "8083:8083"
	      }
	    ],
      "privileged": true
    },
    "volumes": [
      {
        "containerPath": "/var/jenkins_home",
        "hostPath": "/jenkins",
        "mode": "RW"
      },
             {
                 "containerPath": "/usr/local/lib/libmesos.so",
                 "hostPath": "/usr/local/lib/libmesos.so",
                 "mode": "RO"
             }
    ]
  },
  "uris": [
    "file:///root/.dockercfg"
  ],
  "env": {
    "SERVICE_8083_NAME": "jenkins",
    "SERVICE_REGION": "us-east-1",
    "LOGSTASH_CONTEXT": "jenkins",
    "MESOS_NATIVE_JAVA_LIBRARY": "/usr/local/lib/libmesos.so",
    "JAVA_OPTS": "-Xms4096M -Xmx4096M -Xss512M -Xmn1024M -XX:PermSize=512M -XX:MaxPermSize=512M -XX:+UseParNewGC -XX:+UseConcMarkSweepGC -XX:CMSInitiatingOccupancyFraction=75 -XX:+UseCMSInitiatingOccupancyOnly -server -Djava.awt.headless=true -verbose:gc -XX:+PrintGCDetails -XX:+PrintGCDateStamps -XX:+HeapDumpOnOutOfMemoryError",
    "TZ": "America/Los_Angeles"
  },
  "constraints": [
    [
      "hostname",
      "LIKE",
      "infra.*"
    ]
  ],
  "args": ["--httpPort=8083", "--httpListenAddress=0.0.0.0"],
  "instances": 1,
  "cpus": 4.0,
  "mem": 6144.0,
  "ports": [
    0,0
  ],
  "backoffSeconds": 1,
  "backoffFactor": 1.15,
  "maxLaunchDelaySeconds": 300,
  "upgradeStrategy": {
    "minimumHealthCapacity": 0,
    "maximumOverCapacity": 0
  }
}
