{
  "id": "/sami/infra/prom-alertmanager",
  "container": {
    "type": "DOCKER",
    "docker": {
      "image": "prom/alertmanager",
      "network": "BRIDGE",
      "portMappings": [
        {
                    "containerPort": 9093,
                    "hostPort": 0,
                    "servicePort": 9093,
                    "protocol": "tcp"
        }
    ]
    },
    "volumes": [
        {
            "containerPath": "/etc/prometheus/conf",
            "hostPath": "/etc/prometheus",
            "mode": "RO"
        }
    ]
  },
  "uris": [ "file:///root/.dockercfg" ],
  "dependencies": [ ],
  "env": {
    "SERVICE_9090_NAME": "prom-alertmanager",
    "TZ": "America/Los_Angeles"
  },
  "constraints": [
    ["hostname", "UNIQUE"],
    ["hostname", "LIKE", "infra.*"]
  ],
  "healthChecks": [
    {
      "path": "/",
      "protocol": "HTTP",
      "gracePeriodSeconds": 30,
      "intervalSeconds": 10,
      "portIndex": 0,
      "timeoutSeconds": 10,
      "maxConsecutiveFailures": 3
    }
  ],
  "instances": 1,
  "cpus": 1.0,
  "mem": 1024.0,
  "backoffSeconds": 1,
  "backoffFactor": 1.15,
  "maxLaunchDelaySeconds": 300,
  "upgradeStrategy": {
    "minimumHealthCapacity": 0,
    "maximumOverCapacity": 0
  },
  "args": [
    "-config.file=/etc/prometheus/conf/alertmanager.yml",
    "-log.level=debug"
  ]
}
