{
  "id": "/sami/infra/samza-exporter-stg",
  "container": {
    "type": "DOCKER",
    "docker": {
      "image": "registry-prod.samihub.org/samza-prometheus-exporter:v1",
      "network": "BRIDGE",
      "portMappings": [{
        "containerPort": 8080,
        "hostPort": 0,
        "servicePort": 9912,
        "protocol": "tcp"
      }],
      "privileged": false
    }
  },
  "constraints": [
    ["hostname", "LIKE", "infra01.*"]
  ],
  "env": {
    "SERVICE_9912_NAME": "samza-exporter-stg",
    "TOPIC": "samza-metrics",
    "PORT": "8080",
    "BROKERS": "10.20.51.233:9092,10.20.51.234:9092,10.20.51.235:9092"
  },
  "instances": 1,
  "cpus": 0.5,
  "mem": 1024.0,
  "backoffSeconds": 1,
  "backoffFactor": 1.15,
  "maxLaunchDelaySeconds": 300,
  "upgradeStrategy": {
    "minimumHealthCapacity": 0,
    "maximumOverCapacity": 0
  },
  "args": [
  ]
}
