{
  "id": "/sami/infra/apps/sisyphus",
  "container": {
    "type": "DOCKER",
    "docker": {
      "image": "registry.samsungsami.io/sisyphus:9d3b46f8507a83bf685692b0196ed6a8a1c916f4",
      "network": "BRIDGE",
      "portMappings": [
        {
          "containerPort": 6891,
          "hostPort": 0,
          "servicePort": 6891,
          "protocol": "tcp"
        }
      ]
    },
    "volumes": [
      {
        "containerPath": "/var/log/sisyphus",
        "hostPath": "/var/log/sisyphus",
        "mode": "RW"
      },
      {
        "containerPath": "/opt/sami/config/logger.xml",
        "hostPath": "/opt/sami/config/logger.xml",
        "mode": "RO"
      }
    ]
  },
  "uris": [
    "file:///root/.dockercfg"
  ],
  "dependencies": [
  ],
  "env": {
    "SERVICE_6891_NAME": "sisyphus",
    "SERVICE_REGION": "us-east-1",
    "LOGSTASH_CONTEXT": "sisyphus",
    "INSTANCE_PARAMS": "-Dhttp.port=6891 -Dsami.deploy.product=sisyphus -Dsami.deploy.env=prod -Dlogger.file=/opt/sami/config/logger.xml",
    "JAVA_OPTS": "-DSAMI_ZOOKEEPER_CONNECT=sami_stg.zookeeper-chef-stg.service.nops.consul:2188 -Xms1024M -Xmx1024M -Xss128M -Xmn256M -XX:PermSize=128M -XX:MaxPermSize=256M -XX:+UseParNewGC -XX:+UseConcMarkSweepGC -XX:CMSInitiatingOccupancyFraction=75 -XX:+UseCMSInitiatingOccupancyOnly -server -Djava.awt.headless=true -verbose:gc -XX:+PrintGCDetails -XX:+PrintGCDateStamps -XX:+HeapDumpOnOutOfMemoryError",
    "SAMI_LOG_DIR": "/var/log/sisyphus",
    "TZ": "America/Los_Angeles"
  },
  "constraints": [
    [
      "hostname",
      "LIKE",
      "^infra.*"
    ]
  ],
  "healthChecks": [
    {
      "path": "/healthcheck",
      "protocol": "HTTP",
      "gracePeriodSeconds": 30,
      "intervalSeconds": 10,
      "portIndex": 0,
      "timeoutSeconds": 10,
      "maxConsecutiveFailures": 3
    }
  ],
  "instances": 1,
  "cpus": 1.0,
  "mem": 2048.0,
  "ports": [
    0
  ],
  "backoffSeconds": 1,
  "backoffFactor": 1.15,
  "maxLaunchDelaySeconds": 300,
  "upgradeStrategy": {
    "minimumHealthCapacity": 0,
    "maximumOverCapacity": 0
  },
  "cmd": "/opt/sami/sisyphus/bin/sisyphus $INSTANCE_PARAMS"
}
