{
  "id": "/sami/qa/apps/cloudsimulator-qa",
  "container": {
    "type": "DOCKER",
    "docker": {
      "image": "registry-preprod.samihub.org/cloud-simulator:38bc9c1d7da9fe6b8d9b51be7bb2c28c284cc60a",
      "network": "BRIDGE",
      "parameters": [
        {
          "key": "label",
          "value": "app=cloudsimulator-qa"
        }
      ],
      "portMappings": [
        {
          "containerPort": 6922,
          "hostPort": 0,
          "servicePort": 6922,
          "protocol": "tcp"
        },
	{
          "containerPort": 16341,
          "hostPort": 0,
          "protocol": "tcp"
        }
      ]
    },
    "volumes": [
      {
        "containerPath": "/var/log/cloudsimulator",
        "hostPath": "/var/log/cloudsimulator",
        "mode": "RW"
      },
      {
        "containerPath": "/opt/sami/config/logger.xml",
        "hostPath": "/opt/sami/config/logger.xml",
        "mode": "RW"
      }
    ]
  },
  "uris": [
    "file:///root/.dockercfg"
  ],
  "labels": {
    "consul": "cloudsimulator-6922-qa",
    "external": "tag",
    "internal": "tag",
    "qa": "tag",
    "6922": "tag",
    "HAPROXY_0_GROUP": "internal",
    "HAPROXY_0_MODE": "http"
  },
  "dependencies": [
    "/sami/qa/apps/gaia-qa"
  ],
  "env": {
    "SERVICE_6922_NAME": "cloudsimulator-qa",
    "SERVICE_6922_CHECK_HTTP": "/healthcheck",
    "SERVICE_6922_CHECK_INTERVAL": "30s",
    "SERVICE_6922_CHECK_TIMEOUT": "2s",
    "SERVICE_16341_NAME": "cloudsimulator-qa-jmx-exporter",
    "SERVICE_REGION": "us-east-1",
    "LOGSTASH_CONTEXT": "cloudsimulator_qa",
    "INSTANCE_PARAMS": "-Dhttp.port=6922 -Dsami.deploy.product=cloud-simulator -Dsami.deploy.env=qa -DSAMI_ZOOKEEPER_CONNECT=zookeeper-qa.service.nops.consul:2182 -Dplay.evolutions.db.metadatadb.autoApply=true -Dlogger.file=/opt/sami/config/logger.xml",
    "JAVA_OPTS": "-Xms1024M -Xmx1024M -Xss128M -XX:MaxMetaspaceSize=256M -XX:+UseG1GC -XX:+UnlockExperimentalVMOptions -XX:+AggressiveOpts -XX:+DoEscapeAnalysis -XX:+UseCompressedOops -XX:MaxGCPauseMillis=400 -XX:G1ReservePercent=20 -XX:ConcGCThreads=4 -server -Djava.awt.headless=true -verbose:gc -XX:+PrintGCDetails -XX:+PrintGCDateStamps -XX:+HeapDumpOnOutOfMemoryError -javaagent:/jmx_prometheus_javaagent-0.7-SNAPSHOT.jar=16341:/jmx_prometheus.yml",
    "SAMI_LOG_DIR": "/var/log/cloudsimulator",
    "TZ": "America/Los_Angeles"
  },
  "constraints": [
    [
      "hostname",
      "LIKE",
      "^app.*"
    ],
    [
      "sami",
      "LIKE",
      "true"
    ]
  ],
  "healthChecks": [
    {
      "path": "/healthcheck",
      "protocol": "HTTP",
      "gracePeriodSeconds": 30,
      "intervalSeconds": 10,
      "portIndex": 0,
      "timeoutSeconds": 10,
      "maxConsecutiveFailures": 3
    }
  ],
  "instances": 1,
  "cpus": 1.0,
  "mem": 2048.0,
  "ports": [
    0
  ],
  "backoffSeconds": 1,
  "backoffFactor": 5.0,
  "maxLaunchDelaySeconds": 3600,
  "upgradeStrategy": {
    "minimumHealthCapacity": 0,
    "maximumOverCapacity": 0
  },
  "args": [
    "play",
    "/opt/sami/cloud-simulator/bin/cloud-simulator"
  ]
}
