{
  "id": "/sami/qa/apps/connectors-qa",
  "container": {
    "type": "DOCKER",
    "docker": {
      "image": "registry-preprod.samihub.org/connectors:6f4213be76bb3fbfa759d9864f13a59932c89c16",
      "network": "BRIDGE",
      "parameters": [
        {
          "key": "label",
          "value": "app=connectors-qa"
        }
      ],
      "portMappings": [
        {
          "containerPort": 6671,
          "hostPort": 0,
          "servicePort": 6672,
          "protocol": "tcp"
        },
        {
          "containerPort": 16341,
          "hostPort": 0,
          "protocol": "tcp"
        }
      ]
    },
    "volumes": [
      {
        "containerPath": "/var/log/connectors",
        "hostPath": "/var/log/connectors",
        "mode": "RW"
      },
      {
        "containerPath": "/opt/sami/config/logger.xml",
        "hostPath": "/opt/sami/config/logger.xml",
        "mode": "RW"
      }
    ]
  },
  "uris": [
    "file:///root/.dockercfg"
  ],
  "labels": {
    "consul": "connectors-6671-qa",
    "external": "tag",
    "internal": "tag",
    "qa": "tag",
    "6671": "tag",
    "HAPROXY_0_GROUP": "internal",
    "HAPROXY_0_MODE": "http"
  },
  "dependencies": [
    "/sami/qa/apps/gaia-qa"
  ],
  "env": {
    "SERVICE_6671_NAME": "connectors-qa",
    "SERVICE_6671_CHECK_HTTP": "/healthcheck",
    "SERVICE_6671_CHECK_INTERVAL": "10s",
    "SERVICE_6671_CHECK_TIMEOUT": "2s",
    "SERVICE_16341_NAME": "connectors-qa-jmx-exporter",
    "SERVICE_REGION": "us-east-1",
    "LOGSTASH_CONTEXT": "connectors_qa",
    "INSTANCE_PARAMS": "-Dhttp.port=6671 -Dsami.deploy.product=connectors -Dsami.deploy.env=qa -DSAMI_ZOOKEEPER_CONNECT=zookeeper-qa.service.nops.consul:2182 -Dlogger.file=/opt/sami/config/logger.xml",
    "JAVA_OPTS": "-Xms1024M -Xmx1024M -Xss256M -Xmn256M -XX:MaxMetaspaceSize=256m -XX:+UseParNewGC -XX:+UseConcMarkSweepGC -XX:CMSInitiatingOccupancyFraction=75 -XX:+UseCMSInitiatingOccupancyOnly -server -Djava.awt.headless=true -verbose:gc -XX:+PrintGCDetails -XX:+PrintGCDateStamps -XX:+HeapDumpOnOutOfMemoryError -javaagent:/jmx_prometheus_javaagent-0.7-SNAPSHOT.jar=16341:/jmx_prometheus.yml",
    "SAMI_LOG_DIR": "/var/log/connectors",
    "TZ": "America/Los_Angeles"
  },
  "constraints": [
    [
      "hostname",
      "LIKE",
      "^app.*"
    ],
    [
      "sami",
      "LIKE",
      "true"
    ]
  ],
  "instances": 2,
  "cpus": 1.0,
  "mem": 2048.0,
  "ports": [
    0
  ],
  "healthChecks": [
    {
      "path": "/healthcheck",
      "protocol": "HTTP",
      "gracePeriodSeconds": 30,
      "intervalSeconds": 10,
      "portIndex": 0,
      "timeoutSeconds": 10,
      "maxConsecutiveFailures": 3
    }
  ],
  "backoffSeconds": 1,
  "backoffFactor": 5.0,
  "maxLaunchDelaySeconds": 3600,
  "upgradeStrategy": {
    "minimumHealthCapacity": 0,
    "maximumOverCapacity": 0
  },
  "args": [
    "play",
    "/opt/sami/connectors/bin/connectors"
  ]
}