{
  "id": "/sami/qa/apps/esmigrator-qa",
  "container": {
    "type": "DOCKER",
    "docker": {
      "image": "registry-preprod.samihub.org/esmigrator:b1690d8a3c644cd9bdc26e6e13ded0577a869cc2",
      "network": "BRIDGE",
      "parameters": [
        {
          "key": "label",
          "value": "app=esmigrator-qa"
        }
      ],
      "portMappings": [
        {
          "containerPort": 8799,
          "hostPort": 0,
          "servicePort": 8799,
          "protocol": "tcp"
        },
        {
          "containerPort": 9300,
          "hostPort": 0,
          "servicePort": 9399,
          "protocol": "tcp"
        },
	{
          "containerPort": 16341,
          "hostPort": 0,
          "protocol": "tcp"
        }
      ]
    },
    "volumes": [
      {
        "containerPath": "/var/log/esmigrator",
        "hostPath": "/var/log/esmigrator",
        "mode": "RW"
      },
      {
        "containerPath": "/opt/sami/config/logger.xml",
        "hostPath": "/opt/sami/config/logger.xml",
        "mode": "RW"
      }
    ]
  },
  "uris": [
    "file:///root/.dockercfg"
  ],
  "labels": {
    "consul": "esmigrator-8790-qa",
    "internal": "tag",
    "qa": "tag",
    "8790": "tag",
    "HAPROXY_0_GROUP": "internal",
    "HAPROXY_0_MODE": "http"
  },
  "dependencies": [
    "/sami/qa/apps/gaia-qa"
  ],
  "env": {
    "SERVICE_8799_NAME": "esmigrator-qa",
    "SERVICE_16341_NAME": "esmigrator-qa-jmx-exporter",
    "SERVICE_REGION": "us-east-1",
    "SERVICE_TAGS": "abcdefghijklmnopqrstuvwxyzaabbccdd",
    "ES_CLIENT": "true",
    "LOGSTASH_CONTEXT": "esmigrator_qa",
    "INSTANCE_PARAMS": "-Dhttp.port=8799 -Dsami.deploy.product=esmigrator -Dsami.deploy.env=qa -DSAMI_ZOOKEEPER_CONNECT=zookeeper-qa.service.nops.consul:2182 -Dlogger.file=/opt/sami/config/logger.xml",
    "JAVA_OPTS": "-Xms2048M -Xmx2048M -Xss256M -Xmn512M -XX:MaxMetaspaceSize=512M -XX:+UseParNewGC -XX:+UseConcMarkSweepGC -XX:CMSInitiatingOccupancyFraction=75 -XX:+UseCMSInitiatingOccupancyOnly -server -Djava.awt.headless=true -verbose:gc -XX:+PrintGCDetails -XX:+PrintGCDateStamps -XX:+HeapDumpOnOutOfMemoryError -javaagent:/jmx_prometheus_javaagent-0.7-SNAPSHOT.jar=16341:/jmx_prometheus.yml",
    "SAMI_LOG_DIR": "/var/log/esmigrator",
    "TZ": "America/Los_Angeles"
  },
  "constraints": [
    [
      "hostname",
      "LIKE",
      "app.*"
    ],
    [
      "hostname",
      "UNIQUE"
    ],
    [
      "sami",
      "LIKE",
      "true"
    ]
  ],
  "healthChecks": [
    {
      "protocol": "HTTP",
      "gracePeriodSeconds": 30,
      "intervalSeconds": 10,
      "portIndex": 0,
      "timeoutSeconds": 10,
      "maxConsecutiveFailures": 3
    }
  ],
  "instances": 1,
  "cpus": 1.0,
  "mem": 3072.0,
  "backoffSeconds": 1,
  "backoffFactor": 5.0,
  "maxLaunchDelaySeconds": 3600,
  "upgradeStrategy": {
    "minimumHealthCapacity": 0,
    "maximumOverCapacity": 0
  },
  "args": [
    "play",
    "/opt/sami/esmigrator/bin/esmigrator",
    "-Des.transport.publish_port=9399"
  ]
}
