{
  "id": "/sami/qa/apps/eswriter-qa",
  "container": {
    "type": "DOCKER",
    "docker": {
      "image": "registry-preprod.samihub.org/eswriter:7c2cac09a44eb3b20a7d5be917acb856c0cd63e7",
      "network": "BRIDGE",
      "parameters": [
        {
          "key": "label",
          "value": "app=eswriter-qa"
        }
      ],
      "portMappings": [
        {
          "containerPort": 6991,
          "hostPort": 0,
          "servicePort": 6992,
          "protocol": "tcp"
        },
        {
          "containerPort": 9300,
          "hostPort": 0,
          "servicePort": 9321,
          "protocol": "tcp"
        },
        {
          "containerPort": 16341,
          "hostPort": 0,
          "protocol": "tcp"
        }
      ]
    },
    "volumes": [
      {
        "containerPath": "/var/log/eswriter",
        "hostPath": "/var/log/eswriter",
        "mode": "RW"
      },
      {
        "containerPath": "/opt/sami/config/logger.xml",
        "hostPath": "/opt/sami/config/logger.xml",
        "mode": "RW"
      }
    ]
  },
  "uris": [
    "file:///root/.dockercfg"
  ],
  "labels": {
    "consul": "eswriter-6991-qa",
    "internal": "tag",
    "qa": "tag",
    "6991": "tag",
    "HAPROXY_0_GROUP": "internal",
    "HAPROXY_0_MODE": "http"
  },
  "dependencies": [
    "/sami/qa/apps/gaia-qa"
  ],
  "env": {
    "SERVICE_6991_NAME": "eswriter-qa",
    "SERVICE_6991_CHECK_HTTP": "/healthcheck",
    "SERVICE_6991_CHECK_INTERVAL": "10s",
    "SERVICE_6991_CHECK_TIMEOUT": "2s",
    "SERVICE_16341_NAME": "eswriter-qa-jmx-exporter",
    "SERVICE_REGION": "us-east-1",
    "ES_CLIENT": "true",
    "LOGSTASH_CONTEXT": "eswriter_qa",
    "INSTANCE_PARAMS": "-Dhttp.port=6991 -Dsami.deploy.product=eswriter -Dsami.deploy.env=qa -DSAMI_ZOOKEEPER_CONNECT=zookeeper-qa.service.nops.consul:2182 -Dlogger.file=/opt/sami/config/logger.xml",
    "JAVA_OPTS": "-Xms1024M -Xmx1024M -Xss256M -Xmn256M -XX:MaxMetaspaceSize=256m -XX:+UseParNewGC -XX:+UseConcMarkSweepGC -XX:CMSInitiatingOccupancyFraction=75 -XX:+UseCMSInitiatingOccupancyOnly -server -Djava.awt.headless=true -verbose:gc -XX:+PrintGCDetails -XX:+PrintGCDateStamps -XX:+HeapDumpOnOutOfMemoryError -javaagent:/jmx_prometheus_javaagent-0.7-SNAPSHOT.jar=16341:/jmx_prometheus.yml",
    "SAMI_LOG_DIR": "/var/log/eswriter",
    "TZ": "America/Los_Angeles"
  },
  "constraints": [
    [
      "hostname",
      "LIKE",
      "app.*"
    ],
    [
      "hostname",
      "UNIQUE"
    ],
    [
      "sami",
      "LIKE",
      "true"
    ]
  ],
  "healthChecks": [
    {
      "path": "/healthcheck",
      "protocol": "HTTP",
      "gracePeriodSeconds": 30,
      "intervalSeconds": 10,
      "portIndex": 0,
      "timeoutSeconds": 10,
      "maxConsecutiveFailures": 3
    }
  ],
  "instances": 1,
  "cpus": 1.0,
  "mem": 2048.0,
  "backoffSeconds": 1,
  "backoffFactor": 5.0,
  "maxLaunchDelaySeconds": 3600,
  "upgradeStrategy": {
    "minimumHealthCapacity": 0,
    "maximumOverCapacity": 0
  },
  "args": [
    "play",
    "/opt/sami/eswriter/bin/eswriter",
    "-Des.transport.publish_port=9321"
  ]
}