{
  "id": "/sami/qa/apps/flume-raw-messages-qa",
  "container": {
    "type": "DOCKER",
    "docker": {
      "image": "registry-preprod.samihub.org/flume:v29",
      "network": "BRIDGE",
      "parameters":  [
      {
      "key": "label",
      "value": "app=flume-raw-messages-qa"
      }
      ], 
      "portMappings": [
        {
          "containerPort": 34545,
          "hostPort": 0,
          "servicePort": 34656,
          "protocol": "tcp"
        }
      ]
    },
    "volumes": [
      {
        "containerPath": "/opt/flume/logs",
        "hostPath": "/var/log/flume",
        "mode": "RW"
      }
    ]
  },
  "cpus": 1.0,
  "mem": 2048.0,
  "constraints": [
        ["hostname", "LIKE", "^hdfs.*"]
  ],
  "env": {
    "FLUME_AGENT_NAME": "raw-messages-agent",
    "FLUME_CONF_FILE": "/opt/flume/conf/flume-conf.properties",
    "FLUME_KAFKA_SOURCE_GROUPID": "raw-messages-flume-consumer",
    "FLUME_ZOOKEEPER_CONNECT": "zookeeper-qa.service.nops.consul:2182",
    "FLUME_KAFKA_SOURCE_TOPIC": "connector-request-topic",
    "FLUME_HDFS_FILEPREFIX": "messages",
    "FLUME_HDFS_INUSEPREFIX": "_",
    "FLUME_HDFS_ROLLINTERVAL": "120",
    "FLUME_DEPLOY_ENV": "qa",
    "FLUME_HDFS_PATH": "hdfs:\\/\\/hdfs01-qa-us-east-1a:8020\\/messages\\/raw\\/seq\\/%Y\\/%m\\/%d\\/%H\\/%{hostname}",
    "FLUME_FILE_CHANNEL_CHECKPOINTDIR": "\\/tmp\\/flume\\/checkpoint",
    "FLUME_FILE_CHANNEL_DATADIR": "\\/tmp\\/flume\\/data",
    "FLUME_MONITORING_PORT": "34645",
    "SYSLOG_HOST": "syslog01-nops-us-east-1a:51515",
    "SYSLOG_PROGRAM_NAME": "flume-raw-messages",
    "JAVA_OPTS": "-Xms1024M -Xmx1024M -Xss128M -XX:MaxMetaspaceSize=256M -XX:+UseG1GC -XX:+UnlockExperimentalVMOptions -XX:+AggressiveOpts -XX:+DoEscapeAnalysis -XX:+UseCompressedOops -XX:MaxGCPauseMillis=400 -XX:G1ReservePercent=20 -XX:ConcGCThreads=4 -server -Djava.awt.headless=true -verbose:gc -XX:+PrintGCDetails -XX:+PrintGCDateStamps -XX:+HeapDumpOnOutOfMemoryError"
  },
  "uris": [
    "file:///root/.dockercfg"
  ],
  "instances": 1,
  "backoffSeconds": 1,
  "backoffFactor": 5.0,
  "maxLaunchDelaySeconds": 3600,
  "upgradeStrategy": {
    "minimumHealthCapacity": 0,
    "maximumOverCapacity": 0
  }
}
