{
  "id": "/sami/qa/apps/griffin-qa",
  "container": {
    "type": "DOCKER",
    "docker": {
      "image": "registry-preprod.samihub.org/griffin:73e36e488de5ab3a57dd821224cc02dd6c96df2d",
      "network": "BRIDGE",
      "parameters": [
        {
          "key": "label",
          "value": "app=griffin-qa"
        }
      ],
      "portMappings": [
        {
          "containerPort": 9000,
          "hostPort": 0,
          "servicePort": 6591,
          "protocol": "tcp"
        }
      ]
    },
    "volumes": [
      {
        "containerPath": "/var/log/griffin",
        "hostPath": "/var/log/griffin",
        "mode": "RW"
      },
      {
        "containerPath": "/opt/sami/config/logger.xml",
        "hostPath": "/opt/sami/config/logger.xml",
        "mode": "RW"
      }
    ]
  },
  "uris": [
    "file:///root/.dockercfg"
  ],
  "labels": {
    "consul": "griffin-6591-qa",
    "external": "tag",
    "internal": "tag",
    "qa": "tag",
    "6591": "tag"
  },
  "env": {
    "SERVICE_6591_NAME": "griffin-qa",
    "SERVICE_REGION": "us-east-1",
    "LOGSTASH_CONTEXT": "griffin_qa",
    "AKKA_CLUSTER": "true",
    "INSTANCE_PARAMS": "-Dsami.healthcheck.port=6591 -Dakka.remote.netty.bind.hostname=0.0.0.0 -Dakka.remote.netty.bind.port=6591 -Dsami.consul.http.endpoint=consul.service.nops.consul:8500/v1/catalog/service/griffin-qa -Dsami.deploy.product=griffin -Dsami.deploy.env=qa -DSAMI_ZOOKEEPER_CONNECT=zookeeper-qa.service.nops.consul:2181 -Dlogback.configurationFile=/opt/sami/config/logger.xml",
    "JAVA_OPTS": "-Xms1024M -Xmx1024M -Xss256M -XX:MaxMetaspaceSize=256m -XX:+UseG1GC -server -Djava.awt.headless=true -verbose:gc -XX:+PrintGCDetails -XX:+PrintGCDateStamps -XX:+HeapDumpOnOutOfMemoryError",
    "SAMI_LOG_DIR": "/var/log/griffin",
    "TZ": "America/Los_Angeles"
  },
  "constraints": [
    [
      "hostname",
      "LIKE",
      "app.*"
    ],
    [
      "hostname",
      "UNIQUE"
    ]
  ],
  "instances": 1,
  "cpus": 1.0,
  "mem": 2048.0,
  "backoffSeconds": 1,
  "backoffFactor": 5.0,
  "maxLaunchDelaySeconds": 3600,
  "upgradeStrategy": {
    "minimumHealthCapacity": 0,
    "maximumOverCapacity": 0
  },
  "args": [
    "/opt/sami/griffin/bin/griffin"
  ]
}