{
  "id": "/sami/qa/apps/iodocs-qa",
  "container": {
    "type": "DOCKER",
    "docker": {
      "image": "registry-preprod.samihub.org/iodocs:7c2cac09a44eb3b20a7d5be917acb856c0cd63e7",
      "network": "BRIDGE",
      "parameters": [
        {
          "key": "label",
          "value": "app=iodocs-qa"
        }
      ],
      "portMappings": [
        {
          "containerPort": 3000,
          "hostPort": 0,
          "servicePort": 3001,
          "protocol": "tcp"
        }
      ]
    },
    "volumes": [

    ]
  },
  "uris": [
    "file:///root/.dockercfg"
  ],
  "env": {
    "SERVICE_3000_NAME": "iodocs-qa",
    "SERVICE_REGION": "us-east-1",
    "LOGSTASH_CONTEXT": "iodocs_qa",
    "TZ": "America/Los_Angeles",
    "SAMI_ENV": "qa",
    "NODE_PORT": "3000"
  },
  "constraints": [
    [
      "hostname",
      "LIKE",
      "^app.*"
    ]
  ],
  "healthChecks": [
    {
      "path": "/sami",
      "protocol": "HTTP",
      "gracePeriodSeconds": 30,
      "intervalSeconds": 10,
      "portIndex": 0,
      "timeoutSeconds": 10,
      "maxConsecutiveFailures": 3
    }
  ],
  "instances": 1,
  "cpus": 1.0,
  "mem": 750.0,
  "ports": [
    0
  ],
  "backoffSeconds": 1,
  "backoffFactor": 5.0,
  "maxLaunchDelaySeconds": 3600,
  "upgradeStrategy": {
    "minimumHealthCapacity": 0,
    "maximumOverCapacity": 0
  },
  "cmd": "/start.sh"
}