{
  "id": "/sami/qa/apps/iris-kinesisstream-qa",
  "args": [
    "spark"
  ],
  "container": {
    "type": "DOCKER",
    "docker": {
      "image": "registry-preprod.samihub.org/iris:5a563125a9f8de24f75320265d90777b571e1ca4",
      "network": "HOST",
      "parameters": [
        {
          "key": "label",
          "value": "app=iris-kinesisstream-qa"
        }
      ],
      "forcePullImage": true
    },
    "volumes": [
      {
        "containerPath": "/usr/local/lib/libmesos.so",
        "hostPath": "/usr/lib/libmesos.so",
        "mode": "RO"
      }
    ]
  },
  "cpus": 0.25,
  "mem": 1536.0,
  "constraints": [
    [
      "hostname",
      "LIKE",
      "^app.*"
    ]
  ],
  "env": {
    "SAMI_ZOOKEEPER_CONNECT": "zookeeper-qa.service.nops.consul:2182",
    "SAMI_DEPLOY_ENV": "qa",
    "SAMI_DEPLOY_PRODUCT": "iris",
    "SPARK_MASTER": "mesos:\\/\\/zk:\\/\\/10.20.0.201:2181,10.20.10.201:2181,10.20.20.201:2181\\/mesos",
    "SPARK_APP_NAME": "IrisKinesisStream",
    "SPARK_JAR": "/opt/sami/iris/iris.jar",
    "SPARK_STREAMING": "true",
    "SPARK_CLASS": "com.samsung.sami.iris.jobs.KinesisStream",
    "SPARK_DRIVER_MEMORY": "1g",
    "SPARK_EXECUTOR_CORES": "2",
    "SPARK_EXECUTOR_MEMORY": "2g",
    "SPARK_NUMSTREAMS": "1",
    "SPARK_SYSLOG_APP_NAME": "iris-kinesisstream",
    "SPARK_EVENTLOG_DIR": "hdfs:\\/\\/hdfs01-qa-us-east-1a.ec2.ssic.internal:8020\\/spark-qa",
    "SPARK_HDFS": "hdfs:\\/\\/hdfs01-qa-us-east-1a.ec2.ssic.internal:8020",
    "SPARK_CHECKPOINT_DIR": "kinesis_stream",
    "SPARK_ERROR_LEVEL": "INFO",
    "SPARK_UI_PORT": "4054",
    "SPARK_JMX_ENABLED": "true",
    "SPARK_JMX_PORT": "5010",
    "SPARK_EXECUTOR_SYSLOG_ENABLED": "true",
    "SPARK_METRICS_ENABLED": "true",
    "SPARK_MESOS_SECRET": "sP0ckn3Wp",
    "SPARK_MESOS_PRINCIPAL": "spark"
  },
  "uris": [
    "file:///root/.dockercfg"
  ],
  "instances": 1,
  "backoffSeconds": 1,
  "backoffFactor": 5.0,
  "maxLaunchDelaySeconds": 3600,
  "upgradeStrategy": {
    "minimumHealthCapacity": 0,
    "maximumOverCapacity": 0
  }
}