{
  "id": "/sami/qa/apps/kafka-consumer-simulator-qa",
  "container": {
    "type": "DOCKER",
    "docker": {
      "image": "registry-preprod.samihub.org/kafka-consumer-simulator:586a5e12bb4290280e463bf6939d5b4be1ed73f4",
      "network": "BRIDGE",
      "parameters": [
        {
          "key": "label",
          "value": "app=kafka-consumer-simulator-qa"
        }
      ],
      "portMappings": [
        {
          "containerPort": 6933,
          "hostPort": 0,
          "servicePort": 6933,
          "protocol": "tcp"
        },
        {
          "containerPort": 16341,
          "hostPort": 0,
          "protocol": "tcp"
        }
      ]
    },
    "volumes": [
      {
        "containerPath": "/var/log/kafka-consumer-simulator",
        "hostPath": "/var/log/kafka-consumer-simulator",
        "mode": "RW"
      },
      {
        "containerPath": "/opt/sami/config/logger.xml",
        "hostPath": "/opt/sami/config/logger.xml",
        "mode": "RW"
      }
    ]
  },
  "uris": [
    "file:///root/.dockercfg"
  ],
  "env": {
    "SERVICE_6933_NAME": "kafka-consumer-simulator-qa",
    "SERVICE_6933_CHECK_HTTP": "/healthcheck",
    "SERVICE_6933_CHECK_INTERVAL": "30s",
    "SERVICE_6933_CHECK_TIMEOUT": "2s",
    "SERVICE_16341_NAME": "kafka-consumer-simulator-qa-jmx-exporter",
    "SERVICE_REGION": "us-east-1",
    "LOGSTASH_CONTEXT": "kafka-consumer-simulator_qa",
    "INSTANCE_PARAMS": "-Dhttp.port=6933 -Dsami.healthcheck.port=6933 -Dsami.deploy.product=kafka-consumer-simulator -Dsami.deploy.env=qa -DSAMI_ZOOKEEPER_CONNECT=zookeeper-qa.service.nops.consul:2182 -Dplay.evolutions.db.metadatadb.autoApply=true -Dlogger.file=/opt/sami/config/logger.xml",
    "JAVA_OPTS": "-Xms1024M -Xmx1024M -Xss128M -XX:MaxMetaspaceSize=256M -XX:+UseG1GC -XX:+UnlockExperimentalVMOptions -XX:+AggressiveOpts -XX:+DoEscapeAnalysis -XX:+UseCompressedOops -XX:MaxGCPauseMillis=400 -XX:G1ReservePercent=20 -XX:ConcGCThreads=4 -server -Djava.awt.headless=true -verbose:gc -XX:+PrintGCDetails -XX:+PrintGCDateStamps -XX:+HeapDumpOnOutOfMemoryError -javaagent:/jmx_prometheus_javaagent-0.7-SNAPSHOT.jar=16341:/jmx_prometheus.yml",
    "SAMI_LOG_DIR": "/var/log/kafka-consumer-simulator",
    "TZ": "America/Los_Angeles"
  },
  "constraints": [
    [
      "hostname",
      "LIKE",
      "^app.*"
    ]
  ],
  "healthChecks": [
    {
      "path": "/healthcheck",
      "protocol": "HTTP",
      "gracePeriodSeconds": 30,
      "intervalSeconds": 10,
      "portIndex": 0,
      "timeoutSeconds": 10,
      "maxConsecutiveFailures": 3
    }
  ],
  "instances": 3,
  "cpus": 1.0,
  "mem": 3072.0,
  "ports": [
    0
  ],
  "backoffSeconds": 1,
  "backoffFactor": 5.0,
  "maxLaunchDelaySeconds": 3600,
  "upgradeStrategy": {
    "minimumHealthCapacity": 0.5,
    "maximumOverCapacity": 0.2
  },
  "args": [
    "java",
    "-jar",
    "/opt/sami/kafka-consumer-simulator/kafka-consumer-simulator.jar"
  ]
}