{
  "id": "/sami/qa/apps/kosmos-qa",
  "container": {
    "type": "DOCKER",
    "docker": {
      "image": "registry-preprod.samihub.org/kosmos:353c1488453c55e4011e2da82c9d27df6a14fdce",
      "network": "BRIDGE",
      "parameters": [
        {
          "key": "label",
          "value": "app=kosmos-qa"
        }
      ],
      "portMappings": [
        {
          "containerPort": 9000,
          "hostPort": 0,
          "servicePort": 3337,
          "protocol": "tcp"
        }
      ]
    },
    "volumes": [
      {
        "containerPath": "/var/log/kosmos",
        "hostPath": "/var/log/kosmos",
        "mode": "RW"
      },
      {
        "containerPath": "/opt/kosmos/conf/logback.xml",
        "hostPath": "/opt/sami/config/logger.xml",
        "mode": "RO"
      }
    ]
  },
  "uris": [
    "file:///root/.dockercfg"
  ],
  "env": {
    "SERVICE_3337_NAME": "kosmos-qa",
    "SERVICE_REGION": "us-east-1",
    "LOGSTASH_CONTEXT": "kosmos_qa",
    "JAVA_OPTS": "-Dsami.deploy.product=kosmos -Dsami.deploy.env=qa -Xms2048M -Xmx2048M -Xss256M -Xmn256M -XX:MaxMetaspaceSize=512m -server -Djava.awt.headless=true -verbose:gc -XX:+PrintGCDetails -XX:+PrintGCDateStamps -XX:+HeapDumpOnOutOfMemoryError -Dlogger.file=/opt/kosmos/conf/logback.xml",
    "TZ": "America/Los_Angeles",
    "SAMI_LOG_LEVEL": "INFO",
    "SAMI_LOG_DIR": "/var/log/kosmos"
  },
  "constraints": [
    [
      "sami",
      "LIKE",
      "true"
    ]
  ],
  "instances": 1,
  "cpus": 1.0,
  "mem": 2048.0,
  "ports": [
    0
  ],
  "backoffSeconds": 1,
  "backoffFactor": 5.0,
  "maxLaunchDelaySeconds": 3600,
  "upgradeStrategy": {
    "minimumHealthCapacity": 0,
    "maximumOverCapacity": 0
  },
  "args": [
    "play",
    "/opt/kosmos/bin/kosmos"
  ]
}