{
  "id": "/sami/qa/apps/sim-esper-qa",
  "container": {
    "type": "DOCKER",
    "docker": {
      "image": "registry-preprod.samihub.org/sim-esper:foo",
      "network": "BRIDGE",
      "parameters":  [
      {
      "key": "label",
      "value": "app=sim-esper-qa"
      }
      ], 
      "portMappings": [
        {
          "containerPort": 24441,
          "hostPort": 0,
          "servicePort": 24442,
          "protocol": "tcp"
        },
         {
          "containerPort": 16341,
          "hostPort": 0,
          "protocol": "tcp"
        }
      ]
    },
    "volumes": [
      {
        "containerPath": "/var/log/sim-esper",
        "hostPath": "/var/log/sim-esper",
        "mode": "RW"
      },
      {
        "containerPath": "/opt/sami/config/logger.xml",
        "hostPath": "/opt/sami/config/logger.xml",
        "mode": "RW"
      }
    ]
  },
  "uris": [
    "file:///root/.dockercfg"
  ],
  "labels": {
    "consul": "sim-esper-24441-qa",
    "internal": "tag",
    "qa": "tag",
    "24441": "tag",
    "HAPROXY_0_GROUP": "internal",
    "HAPROXY_0_MODE": "http"
  },
  "env": {
    "SERVICE_24441_NAME": "sim-esper-qa",
    "SERVICE_16341_NAME": "aegis-qa-jmx-exporter",
    "SERVICE_REGION": "us-east-1",
    "LOGSTASH_CONTEXT": "sim_esper_qa",
    "INSTANCE_PARAMS": "-Dhttp.port=24441 -Dsami.deploy.product=sim-esper -Dsami.deploy.env=qa -DSAMI_ZOOKEEPER_CONNECT=zookeeper-qa.service.nops.consul:2182 -Dlogger.file=/opt/sami/config/logger.xml",
    "JAVA_OPTS": "-Xms512M -Xmx512M -Xss64M -Xmn64M -XX:MaxMetaspaceSize=64m -XX:+UseParNewGC -XX:+UseConcMarkSweepGC -XX:CMSInitiatingOccupancyFraction=75 -XX:+UseCMSInitiatingOccupancyOnly -server -Djava.awt.headless=true -verbose:gc -XX:+PrintGCDetails -XX:+PrintGCDateStamps -XX:+HeapDumpOnOutOfMemoryError -javaagent:/jmx_prometheus_javaagent-0.7-SNAPSHOT.jar=16341:/jmx_prometheus.yml",
    "SAMI_LOG_DIR": "/var/log/sim-esper",
    "TZ": "America/Los_Angeles"
  },
  "constraints": [
    [
      "hostname",
      "LIKE",
      "^app.*"
    ],
    [
      "sami",
      "LIKE",
      "true"
    ]
  ],
  "healthChecks": [
    {
      "path": "/healthcheck",
      "protocol": "HTTP",
      "gracePeriodSeconds": 30,
      "intervalSeconds": 10,
      "portIndex": 0,
      "timeoutSeconds": 10,
      "maxConsecutiveFailures": 3
    }
  ],
  "instances": 0,
  "cpus": 1.0,
  "mem": 750.0,
  "ports": [
    0
  ],
  "backoffSeconds": 1,
  "backoffFactor": 5.0,
  "maxLaunchDelaySeconds": 3600,
  "upgradeStrategy": {
    "minimumHealthCapacity": 0,
    "maximumOverCapacity": 0
  },
  "args": [
    "play",
    "/opt/sami/sim-esper/bin/esper"
  ]
}
