{
    "id": "/sami/stg/backends/elasticsearch-arachne-stg",
    "args": [
        "elasticsearch",
        "-Des.transport.publish_port=9304",
        "-Des.network.host=0.0.0.0",
        "-Des.index.mapper.dynamic=true",
        "-Des.cluster.name=sami-arachne-stg",
        "-Des.bootstrap.mlockall=true",
        "-Des.gateway.recover_after_nodes=2",
        "-Des.gateway.expected_nodes=2",
        "-Des.gateway.recovery_after_time=5m",
        "-Des.cluster.routing.allocation.awareness.attributes=availability_zone",
        "-Des.node.availability_zone=us-east-1a",
        "-Des.discovery.zen.minimum_master_nodes=2",
        "-Des.discovery.zen.ping.multicast.enabled=false",
        "-Des.discovery.zen.ping.unicast.hosts=10.20.1.211:9304,10.20.2.211:9304,10.20.3.211:9304",
        "-Des.index.refresh_interval=1s",
        "-Dscript.engine.groovy.inline.update=true",
        "-Dmarvel.agent.exporter.es.hosts=infra01-nops-us-east-1a.ec2.ssic.internal:9209"
    ],
    "container": {
        "type": "DOCKER",
        "docker": {
            "image": "registry.samsungsami.io/elasticsearch:2.3.1v6",
            "network": "BRIDGE",
            "portMappings": [
                {
                    "containerPort": 9200,
                    "hostPort": 0,
                    "servicePort": 9204,
                    "protocol": "tcp"
                },
                {
                    "containerPort": 9300,
                    "hostPort": 0,
                    "servicePort": 9304,
                    "protocol": "tcp"
                }
            ],
            "privileged": true
        },
        "volumes": [
            {
                "containerPath": "/usr/share/elasticsearch/data",
                "hostPath": "/els-docker-cluster",
                "mode": "RW"
            }
        ]
    },
    "cpus": 1.0,
    "mem": 3072.0,
    "constraints": [
        ["hostname", "LIKE", "appstg.*"],
        ["hostname", "UNIQUE"]
    ],
    "env": {
        "SERVICE_9200_NAME": "elasticsearch-arachne-stg",
        "SERVICE_9300_NAME": "elasticsearch-arachne-stg-9300",
        "SERVICE_TAGS": "2.3.1",
        "SERVICE_VERSION": "2.3.1",
        "JAVA_OPTS": "-Xms2048M -Xmx2048M -Xss256M -Xmn256M -XX:PermSize=256M -XX:MaxPermSize=256M -XX:+UseParNewGC -XX:+UseConcMarkSweepGC -XX:CMSInitiatingOccupancyFraction=75 -XX:+UseCMSInitiatingOccupancyOnly -XX:+HeapDumpOnOutOfMemoryError -XX:+PrintGCDetails -XX:+PrintGCTimeStamps -XX:+PrintClassHistogram -XX:+PrintTenuringDistribution -XX:+PrintGCApplicationStoppedTime -Xloggc:/els/gc.log",
        "SERVICE_REGION": "us-east-1",
        "TZ": "America/Los_Angeles"
    },
    "uris": [
      "file:///root/.dockercfg"
    ],
    "healthChecks": [
        {
            "protocol": "HTTP",
            "path": "/_cluster/health",
            "gracePeriodSeconds": 30,
            "intervalSeconds": 10,
            "portIndex": 0,
            "timeoutSeconds": 10,
            "maxConsecutiveFailures": 3
        }
    ],
    "instances": 3,
    "ports": [ 0, 0 ],
    "backoffSeconds": 1,
    "backoffFactor": 1.15,
    "maxLaunchDelaySeconds": 300,
    "upgradeStrategy": {
        "minimumHealthCapacity": 0.5,
        "maximumOverCapacity": 0.2
    }
}
