{
    "id": "/sami/qa/backends/mongo-kosmos-qa",
    "args": ["mongod", "--auth", "--setParameter", "enableLocalhostAuthBypass=0", "--logpath", "/data/db/mongod.log", "--smallfiles", "--logappend"],
    "container": {
        "type": "DOCKER",
        "docker": {
            "image": "mongo:3.2.10",
            "network": "BRIDGE",
            "parameters": [
              { "key": "hostname", "value": "mongo-kosmos-qa" }
            ],
            "portMappings": [
                {
                    "containerPort": 27017,
                    "hostPort": 0,
                    "servicePort": 27020,
                    "protocol": "tcp"
                }
            ],
            "privileged": false
        },
        "volumes": [
            {
                "containerPath": "/data/db",
                "hostPath": "/mongodb",
                "mode": "RW"
            }
        ]
    },
    "cpus": 2.0,
    "mem": 4086.0,
    "env": {
        "SERVICE_27017_NAME": "mongo-kosmos-qa",
        "SERVICE_REGION": "us-east-1",
        "TZ": "America/Los_Angeles"
    },
    "constraints": [
        ["hostname", "LIKE", "appqa03.*"],
        ["hostname", "UNIQUE"]
    ],
	"healthChecks": [
        {
            "protocol": "TCP",
            "gracePeriodSeconds": 30,
            "intervalSeconds": 10,
            "portIndex": 0,
            "timeoutSeconds": 10,
            "maxConsecutiveFailures": 3
        }
    ],
    "instances": 1,
    "ports": [ 0 ],
    "backoffSeconds": 1,
    "backoffFactor": 1.15,
    "maxLaunchDelaySeconds": 360,
    "upgradeStrategy": {
        "minimumHealthCapacity": 0,
        "maximumOverCapacity": 0
    }
}
