{
  "id": "/sami/stg/apps/abacus-errors-stg",
  "args": [
    "spark"
  ],
  "container": {
    "type": "DOCKER",
    "docker": {
      "image": "registry-prod.samihub.org/abacus-spark-streaming:7c2cac09a44eb3b20a7d5be917acb856c0cd63e7",
      "network": "HOST",
      "parameters": [
        {
          "key": "label",
          "value": "app=abacus-errors-stg"
        }
      ]
    },
    "volumes": [
      {
        "containerPath": "/usr/local/lib/libmesos.so",
        "hostPath": "/usr/lib/libmesos.so",
        "mode": "RO"
      }
    ]
  },
  "cpus": 0.5,
  "mem": 1536.0,
  "constraints": [
    [
      "hostname",
      "LIKE",
      "^hdfs.*"
    ]
  ],
  "env": {
    "SAMI_ZOOKEEPER_CONNECT": "sami_stg.zookeeper-chef-stg.service.nops.consul:2188",
    "SAMI_DEPLOY_ENV": "stg",
    "SAMI_DEPLOY_PRODUCT": "abacus",
    "SPARK_MASTER": "mesos:\\/\\/zk:\\/\\/10.20.0.201:2181,10.20.10.201:2181,10.20.20.201:2181\\/mesos",
    "SPARK_CONF_DIR": "/opt/spark/conf",
    "SPARK_HOME": "/opt/spark",
    "SPARK_APP_NAME": "ErrorStream",
    "SPARK_JAR": "/opt/sami/abacus-spark-streaming/abacus-spark-streaming.jar",
    "SPARK_STREAMING": "true",
    "SPARK_CLASS": "com.samsung.sami.abacus.spark.streaming.jobs.ErrorStream",
    "SPARK_DRIVER_MEMORY": "1g",
    "SPARK_EXECUTOR_CORES": "2",
    "SPARK_EXECUTOR_MEMORY": "2g",
    "SPARK_NUMSTREAMS": "1",
    "SPARK_SYSLOG_APP_NAME": "abacus-errors",
    "SPARK_UI_PORT": "4061",
    "SPARK_EVENTLOG_DIR": "hdfs:\\/\\/hdfs01-stg-us-east-1a.ec2.ssic.internal:8020\\/spark-stg",
    "SPARK_HDFS": "hdfs:\\/\\/hdfs01-stg-us-east-1a.ec2.ssic.internal:8020",
    "SPARK_CHECKPOINT_ENABLED": "true",
    "SPARK_CHECKPOINT_DIR": "error_stream",
    "SPARK_MESOS_SECRET": "sP0ckn3Wp",
    "SPARK_MESOS_PRINCIPAL": "spark"
  },
  "uris": [
    "file:///root/.dockercfg"
  ],
  "instances": 1,
  "backoffSeconds": 1,
  "backoffFactor": 5.0,
  "maxLaunchDelaySeconds": 3600,
  "upgradeStrategy": {
    "minimumHealthCapacity": 0,
    "maximumOverCapacity": 0
  }
}