{
  "id": "/sami/stg/apps/argus-stg",
  "container": {
    "type": "DOCKER",
    "docker": {
      "image": "registry-prod.samihub.org/argus:6effaf2ddaa3ec2245faf5283b029e4e40749436",
      "network": "BRIDGE",
      "parameters": [
        {
          "key": "label",
          "value": "app=argus-stg"
        }
      ],
      "portMappings": [
        {
          "containerPort": 6981,
          "hostPort": 6981,
          "servicePort": 6981,
          "protocol": "tcp"
        },
        {
          "containerPort": 5685,
          "hostPort": 5685,
          "servicePort": 5685,
          "protocol": "udp"
        },
        {
          "containerPort": 5686,
          "hostPort": 5686,
          "servicePort": 5686,
          "protocol": "udp"
        },
        {
          "containerPort": 5688,
          "hostPort": 5688,
          "servicePort": 5688,
          "protocol": "tcp"
        },
        {
          "containerPort": 5689,
          "hostPort": 5689,
          "servicePort": 5689,
          "protocol": "tcp"
        },
        {
          "containerPort": 6983,
          "hostPort": 6983,
          "servicePort": 6983,
          "protocol": "tcp"
        },
        {
          "containerPort": 16341,
          "hostPort": 0,
          "protocol": "tcp"
        }
      ]
    },
    "volumes": [
      {
        "containerPath": "/var/log/argus",
        "hostPath": "/var/log/argus",
        "mode": "RW"
      },
      {
        "containerPath": "/opt/sami/config/logger.xml",
        "hostPath": "/opt/sami/config/logger.xml",
        "mode": "RW"
      },
      {
        "containerPath": "/opt/sami/argus/conf/coaps-api-stg.jks",
        "hostPath": "/opt/sami/config/coaps-api-stg.jks",
        "mode": "RW"
      }
    ]
  },
  "uris": [
    "file:///root/.dockercfg"
  ],
  "labels": {
    "consul": "argus-6981-stg",
    "internal": "tag",
    "stg": "tag",
    "6981": "tag",
    "HAPROXY_0_GROUP": "internal",
    "HAPROXY_0_MODE": "http"
  },
  "dependencies": [
    "/sami/stg/apps/gaia-stg"
  ],
  "env": {
    "SERVICE_6981_NAME": "argus-stg",
    "SERVICE_6981_CHECK_HTTP": "/healthcheck",
    "SERVICE_6981_CHECK_INTERVAL": "30s",
    "SERVICE_6981_CHECK_TIMEOUT": "2s",
    "SERVICE_16341_NAME": "argus-stg-jmx-exporter",
    "SERVICE_REGION": "us-east-1",
    "LOGSTASH_CONTEXT": "argus_stg",
    "INSTANCE_PARAMS": "-Dhttp.port=6981 -Dsami.deploy.product=argus -Dsami.deploy.env=stg -DSAMI_LOG_LEVEL=trace -DSAMI_ZOOKEEPER_CONNECT=sami_stg.zookeeper-chef-stg.service.nops.consul:2188 -Dplay.evolutions.db.metadatadb.autoApply=true -Dlogger.file=/opt/sami/config/logger.xml -Dcom.sun.management.jmxremote -Dcom.sun.management.jmxremote.port=6983 -Dcom.sun.management.jmxremote.rmi.port=6983 -Dcom.sun.management.jmxremote.authenticate=false -Dcom.sun.management.jmxremote.ssl=false",
    "JAVA_OPTS": "-Xms3072M -Xmx3072M -XX:MaxMetaspaceSize=1024M -XX:+UseG1GC -XX:+UnlockExperimentalVMOptions -XX:+AggressiveOpts -XX:+DoEscapeAnalysis -XX:+UseCompressedOops -XX:MaxGCPauseMillis=400 -XX:G1ReservePercent=20 -server -Djava.awt.headless=true -verbose:gc -XX:+PrintGCDetails -XX:+PrintGCDateStamps -XX:+HeapDumpOnOutOfMemoryError -javaagent:/jmx_prometheus_javaagent-0.7-SNAPSHOT.jar=16341:/jmx_prometheus.yml",
    "SAMI_LOG_DIR": "/var/log/argus",
    "SAMI_LOG_LEVEL": "INFO",
    "TZ": "America/Los_Angeles"
  },
  "constraints": [
    [
      "rl",
      "LIKE",
      "janus"
    ],
    [
      "env",
      "LIKE",
      "stg"
    ]
  ],
  "healthChecks": [
    {
      "path": "/healthcheck",
      "protocol": "HTTP",
      "gracePeriodSeconds": 30,
      "intervalSeconds": 10,
      "portIndex": 0,
      "timeoutSeconds": 10,
      "maxConsecutiveFailures": 3
    }
  ],
  "instances": 4,
  "cpus": 1.0,
  "mem": 4096.0,
  "ports": [
    0
  ],
  "backoffSeconds": 1,
  "backoffFactor": 5.0,
  "maxLaunchDelaySeconds": 3600,
  "upgradeStrategy": {
    "minimumHealthCapacity": 0.5,
    "maximumOverCapacity": 0.2
  },
  "args": [
    "play",
    "/opt/sami/argus/bin/argus"
  ]
}