{
  "id": "/sami/stg/apps/babel-stg",
  "container": {
    "type": "DOCKER",
    "docker": {
      "image": "registry-prod.samihub.org/babel:4372b35f62ef84c60b3573d14ecd835de86cc88a",
      "network": "BRIDGE",
      "parameters": [
        {
          "key": "label",
          "value": "app=babel-stg"
        }
      ],
      "portMappings": [
        {
          "containerPort": 6601,
          "hostPort": 0,
          "servicePort": 6603,
          "protocol": "tcp"
        }
      ]
    },
    "volumes": [
      {
        "containerPath": "/var/log/babel",
        "hostPath": "/var/log/babel",
        "mode": "RW"
      },
      {
        "containerPath": "/opt/sami/config/logger.xml",
        "hostPath": "/opt/sami/config/logger.xml",
        "mode": "RW"
      }
    ]
  },
  "uris": [
    "file:///root/.dockercfg"
  ],
  "dependencies": [
    "/sami/stg/apps/gaia-stg"
  ],
  "env": {
    "SERVICE_6601_NAME": "babel-stg",
    "SERVICE_REGION": "us-east-1",
    "LOGSTASH_CONTEXT": "babel_stg",
    "INSTANCE_PARAMS": "-Dhttp.port=6601 -Dsami.deploy.product=babel -Dsami.deploy.env=stg -DSAMI_ZOOKEEPER_CONNECT=sami_stg.zookeeper-chef-stg.service.nops.consul:2188 -Dlogback.configurationFile=/opt/sami/config/logger.xml",
    "JAVA_OPTS": "-Xms1024M -Xmx1024M -Xss256M -Xmn256M -XX:MaxMetaspaceSize=256m -server -Djava.awt.headless=true -verbose:gc -XX:+PrintGCDetails -XX:+PrintGCDateStamps -XX:+HeapDumpOnOutOfMemoryError -XX:+UseParNewGC -XX:+UseConcMarkSweepGC -XX:CMSInitiatingOccupancyFraction=75 -XX:+UseCMSInitiatingOccupancyOnly -XX:+CMSClassUnloadingEnabled -XX:SurvivorRatio=8 -XX:MaxTenuringThreshold=8 -XX:+PrintPromotionFailure -XX:+PrintTenuringDistribution -XX:+CMSParallelRemarkEnabled -XX:+UseCondCardMark -XX:+PrintHeapAtGC -XX:+PrintGCApplicationStoppedTime -XX:+PrintCommandLineFlags -XX:+UseGCLogFileRotation -XX:NumberOfGCLogFiles=20 -XX:GCLogFileSize=50M -Xloggc:/var/log/babel/gc.log",
    "SAMI_LOG_DIR": "/var/log/babel",
    "TZ": "America/Los_Angeles"
  },
  "constraints": [
    [
      "hostname",
      "LIKE",
      "^app.*"
    ]
  ],
  "instances": 2,
  "cpus": 1.0,
  "mem": 2048.0,
  "ports": [
    0
  ],
  "backoffSeconds": 1,
  "backoffFactor": 5.0,
  "maxLaunchDelaySeconds": 3600,
  "upgradeStrategy": {
    "minimumHealthCapacity": 0,
    "maximumOverCapacity": 0
  },
  "args": [
    "java",
    "-jar",
    "/opt/sami/babel/babel.jar",
    "--cg=adapter-consumer-group"
  ]
}