{
  "id": "/sami/stg/apps/chronos-stg",
  "container": {
    "type": "DOCKER",
    "docker": {
      "image": "registry-prod.samihub.org/chronos:0c9441195f9ce65300e35e101e957b4dba7e2a7e",
      "network": "BRIDGE",
      "parameters": [
        {
          "key": "label",
          "value": "app=chronos-stg"
        }
      ],
      "portMappings": [
        {
          "containerPort": 6651,
          "hostPort": 0,
          "servicePort": 6653,
          "protocol": "tcp"
        },
        {
          "containerPort": 9300,
          "hostPort": 0,
          "servicePort": 9312,
          "protocol": "tcp"
        }
      ]
    },
    "volumes": [
      {
        "containerPath": "/var/log/chronos",
        "hostPath": "/var/log/chronos",
        "mode": "RW"
      },
      {
        "containerPath": "/opt/sami/config/logger.xml",
        "hostPath": "/opt/sami/config/logger.xml",
        "mode": "RW"
      },
      {
        "containerPath": "/sami_data_exports",
        "hostPath": "/sami_data_exports",
        "mode": "RW"
      }
    ]
  },
  "uris": [
    "file:///root/.dockercfg"
  ],
  "labels": {
    "consul": "chronos-6651-stg",
    "external": "tag",
    "internal": "tag",
    "stg": "tag",
    "6651": "tag",
    "HAPROXY_0_GROUP": "internal",
    "HAPROXY_0_MODE": "http",
    "traefik.frontend.rule": "PathPrefixStrip:/chronos-stg",
    "traefik.backend": "-chronos-stg",
    "traefik.portIndex": "0",
    "traefik.enable": "true"
  },
  "dependencies": [
    "/sami/stg/apps/gaia-stg"
  ],
  "env": {
    "SERVICE_6651_NAME": "chronos-stg",
    "SERVICE_6651_CHECK_HTTP": "/healthcheck",
    "SERVICE_6651_CHECK_INTERVAL": "10s",
    "SERVICE_6651_CHECK_TIMEOUT": "2s",
    "ES_CLIENT": "true",
    "SERVICE_REGION": "us-east-1",
    "LOGSTASH_CONTEXT": "chronos_stg.json",
    "INSTANCE_PARAMS": "-Dhttp.port=6651 -Dsami.deploy.product=chronos -Dsami.deploy.env=stg -DSAMI_ZOOKEEPER_CONNECT=sami_stg.zookeeper-chef-stg.service.nops.consul:2188 -Dlogger.file=/opt/sami/config/logger.xml",
    "JAVA_OPTS": "-Xms1576M -Xmx1576M -Xss256M -XX:MaxMetaspaceSize=768M -XX:+UseParNewGC -XX:+UseConcMarkSweepGC -XX:CMSInitiatingOccupancyFraction=75 -XX:+UseCMSInitiatingOccupancyOnly -server -Djava.awt.headless=true -verbose:gc -XX:+PrintGCDetails -XX:+PrintGCDateStamps -XX:+HeapDumpOnOutOfMemoryError",
    "SAMI_LOG_DIR": "/var/log/chronos",
    "TZ": "America/Los_Angeles"
  },
  "constraints": [
    [
      "hostname",
      "LIKE",
      "app.*"
    ],
    [
      "hostname",
      "UNIQUE"
    ]
  ],
  "healthChecks": [
    {
      "path": "/healthcheck",
      "protocol": "HTTP",
      "gracePeriodSeconds": 30,
      "intervalSeconds": 10,
      "portIndex": 0,
      "timeoutSeconds": 10,
      "maxConsecutiveFailures": 3
    }
  ],
  "instances": 1,
  "cpus": 2.0,
  "mem": 3072.0,
  "backoffSeconds": 1,
  "backoffFactor": 5.0,
  "maxLaunchDelaySeconds": 3600,
  "upgradeStrategy": {
    "minimumHealthCapacity": 0,
    "maximumOverCapacity": 0
  },
  "args": [
    "play",
    "/opt/sami/chronos/bin/chronos",
    "-Des.transport.publish_port=9312"
  ]
}