{
  "id": "/sami/stg/apps/kairos-stg",
  "container": {
    "type": "DOCKER",
    "docker": {
      "image": "registry-prod.samihub.org/kairos:824abe82fd0980cf451985ecb840527634b0514d",
      "network": "BRIDGE",
      "parameters": [
        {
          "key": "label",
          "value": "app=kairos-stg"
        }
      ],
      "portMappings": [
        {
          "containerPort": 6161,
          "hostPort": 0,
          "servicePort": 6163,
          "protocol": "tcp"
        },
        {
          "containerPort": 6165,
          "hostPort": 0,
          "servicePort": 6167,
          "protocol": "tcp"
        }
      ]
    },
    "volumes": [
      {
        "containerPath": "/var/log/kairos",
        "hostPath": "/var/log/kairos",
        "mode": "RW"
      },
      {
        "containerPath": "/opt/sami/config/logger.xml",
        "hostPath": "/opt/sami/config/logger.xml",
        "mode": "RW"
      }
    ]
  },
  "uris": [
    "file:///root/.dockercfg"
  ],
  "labels": {
    "consul": "kairos-6165-stg",
    "external": "tag",
    "internal": "tag",
    "stg": "tag",
    "6165": "tag"
  },
  "env": {
    "SERVICE_6161_NAME": "kairos-stg",
    "SERVICE_6165_NAME": "kairos-stg-healthcheck",
    "SERVICE_6165_CHECK_HTTP": "/healthcheck",
    "SERVICE_6165_CHECK_INTERVAL": "10s",
    "SERVICE_6165_CHECK_TIMEOUT": "2s",
    "SERVICE_REGION": "us-east-1",
    "LOGSTASH_CONTEXT": "kairos_stg",
    "AKKA_CLUSTER": "true",
    "INSTANCE_PARAMS": "-Dsami.healthcheck.port=6165 -Dakka.remote.netty.bind.hostname=0.0.0.0 -Dakka.remote.netty.bind.port=6161 -Dsami.consul.http.endpoint=consul.service.nops.consul:8500/v1/catalog/service/kairos-stg -Dsami.deploy.product=kairos -Dsami.deploy.env=stg -DSAMI_ZOOKEEPER_CONNECT=sami_stg.zookeeper-chef-stg.service.nops.consul:2188 -Dlogback.configurationFile=/opt/sami/config/logger.xml",
    "JAVA_OPTS": "-Xms1024M -Xmx1024M -Xss256M -XX:MaxMetaspaceSize=256m -XX:+UseG1GC -server -Djava.awt.headless=true -verbose:gc -XX:+PrintGCDetails -XX:+PrintGCDateStamps -XX:+HeapDumpOnOutOfMemoryError",
    "SAMI_LOG_DIR": "/var/log/kairos",
    "TZ": "America/Los_Angeles"
  },
  "constraints": [
    [
      "hostname",
      "LIKE",
      "app.*"
    ],
    [
      "hostname",
      "UNIQUE"
    ]
  ],
  "healthChecks": [
    {
      "path": "/healthcheck",
      "protocol": "HTTP",
      "gracePeriodSeconds": 30,
      "intervalSeconds": 10,
      "portIndex": 1,
      "timeoutSeconds": 10,
      "maxConsecutiveFailures": 3
    }
  ],
  "instances": 3,
  "cpus": 1.0,
  "mem": 2048.0,
  "backoffSeconds": 1,
  "backoffFactor": 5.0,
  "maxLaunchDelaySeconds": 3600,
  "upgradeStrategy": {
    "minimumHealthCapacity": 0,
    "maximumOverCapacity": 0
  },
  "args": [
    "java",
    "-jar",
    "/opt/sami/kairos/kairos.jar"
  ]
}
