{
  "id": "/sami/stg/apps/rediswriter-stg",
  "container": {
    "type": "DOCKER",
    "docker": {
      "image": "registry-prod.samihub.org/rediswriter:0c9441195f9ce65300e35e101e957b4dba7e2a7e",
      "network": "BRIDGE",
      "parameters": [
        {
          "key": "label",
          "value": "app=rediswriter-stg"
        }
      ],
      "portMappings": [
        {
          "containerPort": 6581,
          "hostPort": 0,
          "servicePort": 6583,
          "protocol": "tcp"
        }
      ]
    },
    "volumes": [
      {
        "containerPath": "/var/log/rediswriter",
        "hostPath": "/var/log/rediswriter",
        "mode": "RW"
      },
      {
        "containerPath": "/opt/sami/config/logger.xml",
        "hostPath": "/opt/sami/config/logger.xml",
        "mode": "RW"
      }
    ]
  },
  "uris": [
    "file:///root/.dockercfg"
  ],
  "labels": {
    "consul": "rediswriter-6581-stg",
    "internal": "tag",
    "stg": "tag",
    "6581": "tag",
    "HAPROXY_0_GROUP": "internal",
    "HAPROXY_0_MODE": "http"
  },
  "env": {
    "SERVICE_6581_NAME": "rediswriter-stg",
    "SERVICE_6581_CHECK_HTTP": "/healthcheck",
    "SERVICE_6581_CHECK_INTERVAL": "30s",
    "SERVICE_6581_CHECK_TIMEOUT": "2s",
    "SERVICE_REGION": "us-east-1",
    "LOGSTASH_CONTEXT": "rediswriter_stg",
    "INSTANCE_PARAMS": "-Dhttp.port=6581 -Dsami.deploy.product=rediswriter -Dsami.deploy.env=stg -DSAMI_ZOOKEEPER_CONNECT=sami_stg.zookeeper-chef-stg.service.nops.consul:2188 -Dlogger.file=/opt/sami/config/logger.xml",
    "JAVA_OPTS": "-Xms1024M -Xmx1024M -Xss256M -XX:MaxMetaspaceSize=256m -XX:+UseG1GC -XX:+UnlockExperimentalVMOptions -XX:+AggressiveOpts -XX:+DoEscapeAnalysis -XX:+UseCompressedOops -XX:MaxGCPauseMillis=400 -XX:G1ReservePercent=20 -XX:ConcGCThreads=4 -server -Djava.awt.headless=true -verbose:gc -XX:+PrintGCDetails -XX:+PrintGCDateStamps -XX:+HeapDumpOnOutOfMemoryError",
    "SAMI_LOG_DIR": "/var/log/rediswriter",
    "SAMI_LOG_LEVEL": "DEBUG",
    "TZ": "America/Los_Angeles"
  },
  "constraints": [
    [
      "hostname",
      "LIKE",
      "^app.*"
    ]
  ],
  "healthChecks": [
    {
      "path": "/healthcheck",
      "protocol": "HTTP",
      "gracePeriodSeconds": 30,
      "intervalSeconds": 10,
      "portIndex": 0,
      "timeoutSeconds": 10,
      "maxConsecutiveFailures": 3
    }
  ],
  "instances": 2,
  "cpus": 1.0,
  "mem": 2048.0,
  "ports": [
    0
  ],
  "backoffSeconds": 1,
  "backoffFactor": 5.0,
  "maxLaunchDelaySeconds": 3600,
  "upgradeStrategy": {
    "minimumHealthCapacity": 0,
    "maximumOverCapacity": 0
  },
  "args": [
    "play",
    "/opt/sami/rediswriter/bin/rediswriter"
  ]
}