{
  "id": "/sami/stg/apps/spark-historyserver-stg",
  "args": [
    "historyserver"
  ],
  "container": {
    "type": "DOCKER",
    "docker": {
      "image": "registry-prod.samihub.org/spark:1.6.0v1",
      "network": "BRIDGE","parameters":  [
      {
      "key": "label",
      "value": "app=spark-historyserver-stg"
      }
      ],
      
      "portMappings": [
        {
          "containerPort": 18082,
          "hostPort": 0,
          "servicePort": 18082,
          "protocol": "tcp"
        }
      ]
    },
    "volumes": [
    ]
  },
  "cpus": 1.0,
  "mem": 1024.0,
  "constraints": [
    [
      "hostname",
      "LIKE",
      "^app.*"
    ]
  ],
  "env": {
    "SERVICE_18082_NAME": "spark-historyserver-stg",
    "SPARK_HISTORY_UI_PORT": "18082",
    "SPARK_HISTORY_FS_CLEANER_ENABLED": "true",
    "SPARK_HISTORY_FS_CLEANER_MAXAGE": "7d",
    "SPARK_EVENTLOG_DIR": "hdfs:\\/\\/hdfs01-stg-us-east-1a.ec2.ssic.internal:8020\\/spark-stg",
    "SPARK_HISTORY_FS_LOGDIR": "hdfs:\\/\\/hdfs01-stg-us-east-1a.ec2.ssic.internal:8020\\/spark-stg"
  },
  "uris": [
    "file:///root/.dockercfg"
  ],
  "instances": 1,
  "backoffSeconds": 1,
  "backoffFactor": 5.0,
  "maxLaunchDelaySeconds": 3600,
  "upgradeStrategy": {
    "minimumHealthCapacity": 0,
    "maximumOverCapacity": 0
  }
}
