{
  "id": "/sami/stg/apps/userportal-stg",
  "container": {
    "type": "DOCKER",
    "docker": {
      "image": "registry-prod.samihub.org/userportal:caab43a0fcf8d3dbc4586f91bf579340ece270f2",
      "network": "BRIDGE",
      "parameters": [
        {
          "key": "label",
          "value": "app=userportal-stg"
        }
      ],
      "portMappings": [
        {
          "containerPort": 6441,
          "hostPort": 0,
          "servicePort": 6443,
          "protocol": "tcp"
        }
      ]
    },
    "volumes": [
      {
        "containerPath": "/var/log/userportal",
        "hostPath": "/var/log/userportal",
        "mode": "RW"
      },
      {
        "containerPath": "/opt/sami/config/logger.xml",
        "hostPath": "/opt/sami/config/logger.xml",
        "mode": "RW"
      }
    ]
  },
  "uris": [
    "file:///root/.dockercfg"
  ],
  "labels": {
    "consul": "userportal-6441-stg",
    "external": "tag",
    "stg": "tag",
    "6441": "tag",
    "HAPROXY_0_GROUP": "external",
    "HAPROXY_0_MODE": "http"
  },
  "dependencies": [
    "/sami/stg/apps/gaia-stg"
  ],
  "env": {
    "SERVICE_6441_NAME": "userportal-stg",
    "SERVICE_6441_CHECK_HTTP": "/healthcheck",
    "SERVICE_6441_CHECK_INTERVAL": "10s",
    "SERVICE_6441_CHECK_TIMEOUT": "2s",
    "SERVICE_REGION": "us-east-1",
    "LOGSTASH_CONTEXT": "userportal_stg.json",
    "INSTANCE_PARAMS": "-Dhttp.port=6441 -Dsami.deploy.product=userportal -Dsami.deploy.env=stg -DSAMI_ZOOKEEPER_CONNECT=sami_stg.zookeeper-chef-stg.service.nops.consul:2188 -Dlogger.file=/opt/sami/config/logger.xml",
    "JAVA_OPTS": "-Xms512M -Xmx512M -Xss64M -Xmn64M -XX:MaxMetaspaceSize=64m -XX:+UseParNewGC -XX:+UseConcMarkSweepGC -XX:CMSInitiatingOccupancyFraction=75 -XX:+UseCMSInitiatingOccupancyOnly -server -Djava.awt.headless=true -verbose:gc -XX:+PrintGCDetails -XX:+PrintGCDateStamps -XX:+HeapDumpOnOutOfMemoryError",
    "SAMI_LOG_DIR": "/var/log/userportal",
    "TZ": "America/Los_Angeles"
  },
  "constraints": [
    [
      "hostname",
      "LIKE",
      "^app.*"
    ]
  ],
  "healthChecks": [
    {
      "path": "/healthcheck",
      "protocol": "HTTP",
      "gracePeriodSeconds": 30,
      "intervalSeconds": 10,
      "portIndex": 0,
      "timeoutSeconds": 10,
      "maxConsecutiveFailures": 3
    }
  ],
  "instances": 1,
  "cpus": 1.0,
  "mem": 750.0,
  "ports": [
    0
  ],
  "backoffSeconds": 1,
  "backoffFactor": 5.0,
  "maxLaunchDelaySeconds": 3600,
  "upgradeStrategy": {
    "minimumHealthCapacity": 0,
    "maximumOverCapacity": 0
  },
  "args": [
    "play",
    "/opt/sami/userportal/bin/userportal"
  ]
}